﻿{
  "iisSettings": {
    "windowsAuthentication": false,
    "anonymousAuthentication": true,
    "iisExpress": {
      "applicationUrl": "http://localhost:19575",
      "sslPort": 0
    }
  },
  "profiles": {
    "EZGarage": {
      "commandName": "Project",
      "launchBrowser": true,
      "applicationUrl": "http://localhost:5000/",
      "launchUrl": "home/index",
      "environmentVariables": {
        "ASPNETCORE_ENVIRONMENT": "Development"
      }
    },
    "IIS Express": {
      "commandName": "IISExpress",
      "launchBrowser": true,
      "environmentVariables": {
        "ASPNETCORE_ENVIRONMENT": "Development"
      }
    }
  }
}
